{
  "openapi": "3.0.3",
  "info": {
    "title": "Rock Paper Scissor Game",
    "description": "This is API RPS Game Binar Challenge Chapter",
    "version": "1.0.1"
  },
  "servers": [
    {
      "url": "http://localhost:5000"
    }
  ],
  "tags": [
    {
      "name": "Players",
      "description": "Everything about your Players"
    }
  ],
  "paths": {
    "/players": {
      "post": {
        "tags": [
          "Players"
        ],
        "summary": "Create Players",
        "requestBody": {
          "description": "Created Players",
          "content": {
            "application/json": {
              "schema": {
                "$ref": "#/components/schemas/Players"
              }
            }
          }
        },
        "responses": {
          "201": {
            "description": "SUCCESS",
            "content": {
              "application/json": {
                "schema": {
                  "$ref": "#/components/schemas/Players"
                }
              }
            }
          },
          "400": {
            "description": "username or email or password field cannot be empty."
          },
          "500": {
            "description": "Some error occurred while creating the Player."
          }
        }
      },
      "get": {
        "tags": [
          "Players"
        ],
        "summary": "Find All Players",
        "responses": {
          "200": {
            "description": "Successful operation",
            "content": {
              "application/json": {
                "schema": {
                  "$ref": "#/components/schemas/Players"
                }
              }
            }
          },
          "500": {
            "description": "Some error occurred while retrieving players."
          }
        }
      }
    },
    "/players/{id}": {
      "get": {
        "tags": [
          "Players"
        ],
        "summary": "Find Players by ID",
        "description": "Returns a single Players",
        "operationId": "getPlayersById",
        "parameters": [
          {
            "in": "path",
            "name": "id",
            "schema": {
              "type": "integer"
            },
            "required": true,
            "description": "The user ID."
          }
        ],
        "responses": {
          "200": {
            "description": "successful operation",
            "content": {
              "application/json": {
                "schema": {
                  "$ref": "#/components/schemas/Players"
                }
              }
            }
          },
          "500": {
            "description": "Error retrieving Player with {id}"
          }
        }
      },
      "put": {
        "tags": [
          "Players"
        ],
        "summary": "Update an Existing Players",
        "description": "Update an Existing Players by Id",
        "operationId": "updatePlayers",
        "parameters": [
          {
            "in": "path",
            "name": "id",
            "schema": {
              "type": "integer"
            },
            "required": true,
            "description": "The user ID."
          }
        ],
        "requestBody": {
          "description": "Update an Existent Players",
          "content": {
            "application/json": {
              "schema": {
                "$ref": "#/components/schemas/Players"
              }
            }
          },
          "required": true
        },
        "responses": {
          "200": {
            "description": "Player was updated successfully.",
            "content": {
              "application/json": {
                "schema": {
                  "$ref": "#/components/schemas/Players"
                }
              }
            }
          },
          "400": {
            "description": "Cannot update Player with {id}. Maybe Player was not found or req.body is empty!"
          },
          "500": {
            "description": "Error updating Player with {id}"
          }
        }
      },
      "delete": {
        "tags": [
          "Players"
        ],
        "summary": "Delete an Existing Players",
        "description": "Delete an Existing Players by Id",
        "parameters": [
          {
            "in": "path",
            "name": "id",
            "schema": {
              "type": "integer"
            },
            "required": true,
            "description": "The user ID."
          }
        ],
        "responses": {
          "200": {
            "description": "Player was deleted successfully!"
          },
          "400": {
            "description": "Cannot delete Player with {id}. Maybe Player was not found!"
          },
          "500": {
            "description": "Could not delete Player with {id}"
          }
        }
      }
    },
    "/players/exp/{id}": {
      "post": {
        "tags": [
          "Players"
        ],
        "summary": "Players Get Experience",
        "parameters": [
          {
            "name": "id",
            "in": "path",
            "description": "ID of Players to return",
            "required": true,
            "schema": {
              "type": "integer",
              "format": "int64"
            }
          }
        ],
        "requestBody": {
          "description": "Get Experience",
          "content": {
            "application/json": {
              "schema": {
                "$ref": "#/components/schemas/Players"
              }
            }
          }
        },
        "responses": {
          "200": {
            "description": "Player with {id} has more experience.",
            "content": {
              "application/json": {
                "schema": {
                  "$ref": "#/components/schemas/Players"
                }
              }
            }
          },
          "400": {
            "description": "Cannot update Player with {id}!"
          },
          "500": {
            "description": "Error updating Player exp with {id}"
          }
        }
      }
    }
  },
  "components": {
    "parameters": {
      "id": {
        "name": "id",
        "in": "path",
        "required": true,
        "description": "Id Players",
        "schema": {
          "type": "integer"
        }
      }
    },
    "schemas": {
      "Players": {
        "type": "object",
        "properties": {
          "username": {
            "type": "string",
            "example": "doggie"
          },
          "email": {
            "type": "string",
            "example": "doggie@gmail.com"
          },
          "password": {
            "type": "string",
            "example": "doggie123"
          },
          "experience": {
            "type": "integer",
            "format": "int64",
            "example": 5
          },
          "lvl": {
            "type": "integer",
            "format": "int64",
            "example": 2
          }
        }
      }
    },
    "securitySchemes": {
      "api_key": {
        "type": "apiKey",
        "name": "api_key",
        "in": "header"
      }
    }
  }
}